\relax 
\citation{fernandez-suarez_2014_2013}
\citation{marx_biology:_2013}
\citation{odriscoll_big_2013}
\newlabel{^_1}{{}{1}}
\@writefile{toc}{\contentsline {section}{\numberline {1}Introduction}{1}}
\@writefile{toc}{\contentsline {section}{\numberline {2}Approach}{1}}
\@writefile{lof}{\contentsline {figure}{\numberline {1}{\ignorespaces Software architecture for BioSSIP.}}{1}}
\newlabel{fig:software_architecture}{{1}{1}}
\@writefile{toc}{\contentsline {subsection}{\numberline {{2.1}}Semantics}{1}}
\bibstyle{natbib}
\bibstyle{achemnat}
\bibstyle{plainnat}
\bibstyle{abbrv}
\bibstyle{bioinformatics}
\bibstyle{plain}
\bibdata{entanglement}
\bibcite{fernandez-suarez_2014_2013}{{1}{2013}{{Fernández-Suárez {\em  et~al.}}}{{Fernández-Suárez, Rigden, and Galperin}}}
\bibcite{marx_biology:_2013}{{2}{2013}{{Marx}}{{Marx}}}
\bibcite{odriscoll_big_2013}{{3}{2013}{{{O'Driscoll} {\em  et~al.}}}{{{O'Driscoll}, Daugelaite, and Sleator}}}
\global\@namedef{@lastpage@}{2}
\@writefile{lot}{\contentsline {table}{\numberline {1}{\ignorespaces This is table caption}}{2}}
\newlabel{Tab:01}{{1}{2}}
\newlabel{tab:backend_features}{{{2.2}}{2}}
\@writefile{toc}{\contentsline {subsection}{\numberline {{2.2}}Scalability}{2}}
\@writefile{toc}{\contentsline {subsection}{\numberline {{2.3}}Application}{2}}
\@writefile{toc}{\contentsline {subsubsection}{\numberline {{{2.3}.1}}Integration Piplelines}{2}}
\@writefile{toc}{\contentsline {subsubsection}{\numberline {{{2.3}.2}}Data mining}{2}}
\@writefile{toc}{\contentsline {section}{\numberline {3}Use Case}{2}}
\@writefile{toc}{\contentsline {section}{\numberline {4}Discussion}{2}}
\@writefile{toc}{\contentsline {paragraph}{Funding\text  {\rm  :}}{2}}
