%!PS-Adobe-2.0 EPSF-1.2
%%Creator: MATLAB, The MathWorks, Inc. Version 8.2.0.701 (R2013b). Operating System: Microsoft Windows 7.
%%Title: pdf_figures\buildtime.eps
%%CreationDate: 01/24/2014  08:27:37
%%DocumentNeededFonts: Helvetica
%%DocumentProcessColors: Cyan Magenta Yellow Black
%%Pages: 1
%%BoundingBox:    60   199   547   602
%%EndComments

%%BeginProlog
% MathWorks dictionary
/MathWorks 160 dict begin
% definition operators
/bdef {bind def} bind def
/ldef {load def} bind def
/xdef {exch def} bdef
/xstore {exch store} bdef
% operator abbreviations
/c  /clip ldef
/cc /concat ldef
/cp /closepath ldef
/gr /grestore ldef
/gs /gsave ldef
/mt /moveto ldef
/np /newpath ldef
/cm /currentmatrix ldef
/sm /setmatrix ldef
/rm /rmoveto ldef
/rl /rlineto ldef
/s {show newpath} bdef
/sc {setcmykcolor} bdef
/sr /setrgbcolor ldef
/sg /setgray ldef
/w /setlinewidth ldef
/j /setlinejoin ldef
/cap /setlinecap ldef
/rc {rectclip} bdef
/rf {rectfill} bdef
% page state control
/pgsv () def
/bpage {/pgsv save def} bdef
/epage {pgsv restore} bdef
/bplot /gsave ldef
/eplot {stroke grestore} bdef
% orientation switch
/portraitMode 0 def /landscapeMode 1 def /rotateMode 2 def
% coordinate system mappings
/dpi2point 0 def
% font control
/FontSize 0 def
/FMS {/FontSize xstore findfont [FontSize 0 0 FontSize neg 0 0]
  makefont setfont} bdef
/ISOLatin1Encoding where {pop /WindowsLatin1Encoding 256 array bdef
ISOLatin1Encoding WindowsLatin1Encoding copy pop
/.notdef/.notdef/quotesinglbase/florin/quotedblbase/ellipsis/dagger
/daggerdbl/circumflex/perthousand/Scaron/guilsinglleft/OE/.notdef/.notdef
/.notdef/.notdef/quoteleft/quoteright/quotedblleft/quotedblright/bullet
/endash/emdash/tilde/trademark/scaron/guilsinglright/oe/.notdef/.notdef
/Ydieresis WindowsLatin1Encoding 128 32 getinterval astore pop}
{/WindowsLatin1Encoding StandardEncoding bdef} ifelse
/reencode {exch dup where {pop load} {pop StandardEncoding} ifelse
  exch dup 3 1 roll findfont dup length dict begin
  { 1 index /FID ne {def}{pop pop} ifelse } forall
  /Encoding exch def currentdict end definefont pop} bdef
/isroman {findfont /CharStrings get /Agrave known} bdef
/FMSR {3 1 roll 1 index dup isroman {reencode} {pop pop} ifelse
  exch FMS} bdef
/csm {1 dpi2point div -1 dpi2point div scale neg translate
 dup landscapeMode eq {pop -90 rotate}
  {rotateMode eq {90 rotate} if} ifelse} bdef
% line types: solid, dotted, dashed, dotdash
/SO { [] 0 setdash } bdef
/DO { [.5 dpi2point mul 4 dpi2point mul] 0 setdash } bdef
/DA { [6 dpi2point mul] 0 setdash } bdef
/DD { [.5 dpi2point mul 4 dpi2point mul 6 dpi2point mul 4
  dpi2point mul] 0 setdash } bdef
% macros for lines and objects
/L {lineto stroke} bdef
/MP {3 1 roll moveto 1 sub {rlineto} repeat} bdef
/AP {{rlineto} repeat} bdef
/PDlw -1 def
/W {/PDlw currentlinewidth def setlinewidth} def
/PP {closepath eofill} bdef
/DP {closepath stroke} bdef
/MR {4 -2 roll moveto dup  0 exch rlineto exch 0 rlineto
  neg 0 exch rlineto closepath} bdef
/FR {MR stroke} bdef
/PR {MR fill} bdef
/L1i {{currentfile picstr readhexstring pop} image} bdef
/tMatrix matrix def
/MakeOval {newpath tMatrix currentmatrix pop translate scale
0 0 1 0 360 arc tMatrix setmatrix} bdef
/FO {MakeOval stroke} bdef
/PO {MakeOval fill} bdef
/PD {currentlinewidth 2 div 0 360 arc fill
   PDlw -1 eq not {PDlw w /PDlw -1 def} if} def
/FA {newpath tMatrix currentmatrix pop translate scale
  0 0 1 5 -2 roll arc tMatrix setmatrix stroke} bdef
/PA {newpath tMatrix currentmatrix pop	translate 0 0 moveto scale
  0 0 1 5 -2 roll arc closepath tMatrix setmatrix fill} bdef
/FAn {newpath tMatrix currentmatrix pop translate scale
  0 0 1 5 -2 roll arcn tMatrix setmatrix stroke} bdef
/PAn {newpath tMatrix currentmatrix pop translate 0 0 moveto scale
  0 0 1 5 -2 roll arcn closepath tMatrix setmatrix fill} bdef
/vradius 0 def /hradius 0 def /lry 0 def
/lrx 0 def /uly 0 def /ulx 0 def /rad 0 def
/MRR {/vradius xdef /hradius xdef /lry xdef /lrx xdef /uly xdef
  /ulx xdef newpath tMatrix currentmatrix pop ulx hradius add uly
  vradius add translate hradius vradius scale 0 0 1 180 270 arc 
  tMatrix setmatrix lrx hradius sub uly vradius add translate
  hradius vradius scale 0 0 1 270 360 arc tMatrix setmatrix
  lrx hradius sub lry vradius sub translate hradius vradius scale
  0 0 1 0 90 arc tMatrix setmatrix ulx hradius add lry vradius sub
  translate hradius vradius scale 0 0 1 90 180 arc tMatrix setmatrix
  closepath} bdef
/FRR {MRR stroke } bdef
/PRR {MRR fill } bdef
/MlrRR {/lry xdef /lrx xdef /uly xdef /ulx xdef /rad lry uly sub 2 div def
  newpath tMatrix currentmatrix pop ulx rad add uly rad add translate
  rad rad scale 0 0 1 90 270 arc tMatrix setmatrix lrx rad sub lry rad
  sub translate rad rad scale 0 0 1 270 90 arc tMatrix setmatrix
  closepath} bdef
/FlrRR {MlrRR stroke } bdef
/PlrRR {MlrRR fill } bdef
/MtbRR {/lry xdef /lrx xdef /uly xdef /ulx xdef /rad lrx ulx sub 2 div def
  newpath tMatrix currentmatrix pop ulx rad add uly rad add translate
  rad rad scale 0 0 1 180 360 arc tMatrix setmatrix lrx rad sub lry rad
  sub translate rad rad scale 0 0 1 0 180 arc tMatrix setmatrix
  closepath} bdef
/FtbRR {MtbRR stroke } bdef
/PtbRR {MtbRR fill } bdef
/stri 6 array def /dtri 6 array def
/smat 6 array def /dmat 6 array def
/tmat1 6 array def /tmat2 6 array def /dif 3 array def
/asub {/ind2 exch def /ind1 exch def dup dup
  ind1 get exch ind2 get sub exch } bdef
/tri_to_matrix {
  2 0 asub 3 1 asub 4 0 asub 5 1 asub
  dup 0 get exch 1 get 7 -1 roll astore } bdef
/compute_transform {
  dmat dtri tri_to_matrix tmat1 invertmatrix 
  smat stri tri_to_matrix tmat2 concatmatrix } bdef
/ds {stri astore pop} bdef
/dt {dtri astore pop} bdef
/db {2 copy /cols xdef /rows xdef mul dup string
  currentfile exch readhexstring pop
  /bmap xdef pop pop} bdef
/it {gs np dtri aload pop moveto lineto lineto cp c
  cols rows 8 compute_transform 
  {bmap} image gr}bdef
/il {newpath moveto lineto stroke}bdef
currentdict end def
%%EndProlog

%%BeginSetup
MathWorks begin

0 cap

end
%%EndSetup

%%Page: 1 1
%%BeginPageSetup
%%PageBoundingBox:    60   199   547   602
MathWorks begin
bpage
%%EndPageSetup

%%BeginObject: obj1
bplot

/dpi2point 12 def
portraitMode 0216 7344 csm

  513   110  5838  4846 MR c np
85 dict begin %Colortable dictionary
/c0 { 0.000000 0.000000 0.000000 sr} bdef
/c1 { 1.000000 1.000000 1.000000 sr} bdef
/c2 { 0.900000 0.000000 0.000000 sr} bdef
/c3 { 0.000000 0.820000 0.000000 sr} bdef
/c4 { 0.000000 0.000000 0.800000 sr} bdef
/c5 { 0.910000 0.820000 0.320000 sr} bdef
/c6 { 1.000000 0.260000 0.820000 sr} bdef
/c7 { 0.000000 0.820000 0.820000 sr} bdef
c0
1 j
1 sg
   0    0 6919 5187 PR
6 w
0 4227 2316 0 0 -4227 899 4616 4 MP
PP
-2316 0 0 4227 2316 0 0 -4227 899 4616 5 MP stroke
4 w
DO
SO
6 w
0 sg
 899  389 mt 3215  389 L
 899 4616 mt 3215 4616 L
3215 4616 mt 3215  389 L
 899 4616 mt  899  389 L
 899 4616 mt 3215 4616 L
 899 4616 mt  899  389 L
 899 4616 mt  899 4573 L
 899  389 mt  899  431 L
%%IncludeResource: font Helvetica
/Helvetica /WindowsLatin1Encoding 120 FMSR

 866 4761 mt 
(0) s
1413 4616 mt 1413 4573 L
1413  389 mt 1413  431 L
1347 4761 mt 
(20) s
1928 4616 mt 1928 4573 L
1928  389 mt 1928  431 L
1862 4761 mt 
(40) s
2443 4616 mt 2443 4573 L
2443  389 mt 2443  431 L
2377 4761 mt 
(60) s
2957 4616 mt 2957 4573 L
2957  389 mt 2957  431 L
2891 4761 mt 
(80) s
 899 4616 mt  941 4616 L
3215 4616 mt 3172 4616 L
 798 4660 mt 
(0) s
 899 4193 mt  941 4193 L
3215 4193 mt 3172 4193 L
 798 4237 mt 
(1) s
 899 3770 mt  941 3770 L
3215 3770 mt 3172 3770 L
 798 3814 mt 
(2) s
 899 3347 mt  941 3347 L
3215 3347 mt 3172 3347 L
 798 3391 mt 
(3) s
 899 2925 mt  941 2925 L
3215 2925 mt 3172 2925 L
 798 2969 mt 
(4) s
 899 2502 mt  941 2502 L
3215 2502 mt 3172 2502 L
 798 2546 mt 
(5) s
 899 2079 mt  941 2079 L
3215 2079 mt 3172 2079 L
 798 2123 mt 
(6) s
 899 1657 mt  941 1657 L
3215 1657 mt 3172 1657 L
 798 1701 mt 
(7) s
 899 1234 mt  941 1234 L
3215 1234 mt 3172 1234 L
 798 1278 mt 
(8) s
 899  811 mt  941  811 L
3215  811 mt 3172  811 L
 798  855 mt 
(9) s
 899  389 mt  941  389 L
3215  389 mt 3172  389 L
 731  433 mt 
(10) s
 899  335 mt 
(x 10) s
%%IncludeResource: font Helvetica
/Helvetica /WindowsLatin1Encoding 80 FMSR

1125  261 mt 
(4) s
 899  389 mt 3215  389 L
 899 4616 mt 3215 4616 L
3215 4616 mt 3215  389 L
 899 4616 mt  899  389 L
gs 899 389 2317 4228 MR c np
0 26 924 4588 2 MP stroke
46 0 901 4588 2 MP stroke
46 0 901 4614 2 MP stroke
0 221 950 4387 2 MP stroke
46 0 927 4387 2 MP stroke
46 0 927 4608 2 MP stroke
0 22 976 4592 2 MP stroke
46 0 953 4592 2 MP stroke
46 0 953 4614 2 MP stroke
0 286 1001 4324 2 MP stroke
45 0 979 4324 2 MP stroke
45 0 979 4610 2 MP stroke
0 1392 1027 3218 2 MP stroke
46 0 1004 3218 2 MP stroke
46 0 1004 4610 2 MP stroke
0 413 1053 4199 2 MP stroke
46 0 1030 4199 2 MP stroke
46 0 1030 4612 2 MP stroke
0 36 1079 4566 2 MP stroke
46 0 1056 4566 2 MP stroke
46 0 1056 4602 2 MP stroke
0 605 1104 3965 2 MP stroke
46 0 1081 3965 2 MP stroke
46 0 1081 4570 2 MP stroke
0 202 1130 4346 2 MP stroke
46 0 1107 4346 2 MP stroke
46 0 1107 4548 2 MP stroke
0 5 1156 4595 2 MP stroke
46 0 1133 4595 2 MP stroke
46 0 1133 4600 2 MP stroke
0 24 1413 4584 2 MP stroke
46 0 1390 4584 2 MP stroke
46 0 1390 4608 2 MP stroke
0 400 1671 3942 2 MP stroke
45 0 1648 3942 2 MP stroke
45 0 1648 4342 2 MP stroke
0 225 1928 4336 2 MP stroke
46 0 1905 4336 2 MP stroke
46 0 1905 4561 2 MP stroke
0 395 2185 4195 2 MP stroke
46 0 2162 4195 2 MP stroke
46 0 2162 4590 2 MP stroke
0 514 2443 4071 2 MP stroke
45 0 2420 4071 2 MP stroke
45 0 2420 4585 2 MP stroke
0 370 2700 4204 2 MP stroke
46 0 2677 4204 2 MP stroke
46 0 2677 4574 2 MP stroke
0 487 2957 4089 2 MP stroke
46 0 2934 4089 2 MP stroke
46 0 2934 4576 2 MP stroke
0 276 3215 4259 2 MP stroke
24 0 3192 4259 2 MP stroke
24 0 3192 4535 2 MP stroke
258 64 257 -56 257 61 258 -65 257 -55 257 306 258 -454 257 -2 
26 151 26 179 25 -316 26 179 26 491 26 -553 25 -136 26 106 
26 -104 924 4601 18 MP stroke
0 9 924 4572 2 MP stroke
46 0 901 4572 2 MP stroke
46 0 901 4581 2 MP stroke
0 2 950 4583 2 MP stroke
46 0 927 4583 2 MP stroke
46 0 927 4585 2 MP stroke
0 7 976 4577 2 MP stroke
46 0 953 4577 2 MP stroke
46 0 953 4584 2 MP stroke
0 8 1001 4576 2 MP stroke
45 0 979 4576 2 MP stroke
45 0 979 4584 2 MP stroke
0 3 1027 4580 2 MP stroke
46 0 1004 4580 2 MP stroke
46 0 1004 4583 2 MP stroke
0 8 1053 4572 2 MP stroke
46 0 1030 4572 2 MP stroke
46 0 1030 4580 2 MP stroke
0 3 1079 4576 2 MP stroke
46 0 1056 4576 2 MP stroke
46 0 1056 4579 2 MP stroke
0 9 1104 4583 2 MP stroke
46 0 1081 4583 2 MP stroke
46 0 1081 4592 2 MP stroke
0 7 1130 4577 2 MP stroke
46 0 1107 4577 2 MP stroke
46 0 1107 4584 2 MP stroke
0 6 1156 4576 2 MP stroke
46 0 1133 4576 2 MP stroke
46 0 1133 4582 2 MP stroke
0 9 1413 4572 2 MP stroke
46 0 1390 4572 2 MP stroke
46 0 1390 4581 2 MP stroke
0 3 1671 4575 2 MP stroke
45 0 1648 4575 2 MP stroke
45 0 1648 4578 2 MP stroke
0 3 1928 4577 2 MP stroke
46 0 1905 4577 2 MP stroke
46 0 1905 4580 2 MP stroke
0 2 2185 4574 2 MP stroke
46 0 2162 4574 2 MP stroke
46 0 2162 4576 2 MP stroke
0 8 2443 4570 2 MP stroke
45 0 2420 4570 2 MP stroke
45 0 2420 4578 2 MP stroke
0 5 2700 4574 2 MP stroke
46 0 2677 4574 2 MP stroke
46 0 2677 4579 2 MP stroke
0 1 2957 4578 2 MP stroke
46 0 2934 4578 2 MP stroke
46 0 2934 4579 2 MP stroke
0 5 3215 4570 2 MP stroke
24 0 3192 4570 2 MP stroke
24 0 3192 4575 2 MP stroke
258 -6 257 1 257 3 258 -1 257 -3 257 2 258 0 257 -3 
26 -2 26 -7 25 10 26 2 26 -6 26 2 25 0 26 -4 
26 7 924 4577 18 MP stroke
0 126 924 4489 2 MP stroke
46 0 901 4489 2 MP stroke
46 0 901 4615 2 MP stroke
0 169 950 4446 2 MP stroke
46 0 927 4446 2 MP stroke
46 0 927 4615 2 MP stroke
0 211 976 4404 2 MP stroke
46 0 953 4404 2 MP stroke
46 0 953 4615 2 MP stroke
0 169 1001 4446 2 MP stroke
45 0 979 4446 2 MP stroke
45 0 979 4615 2 MP stroke
0 126 1027 4489 2 MP stroke
46 0 1004 4489 2 MP stroke
46 0 1004 4615 2 MP stroke
0 211 1053 4404 2 MP stroke
46 0 1030 4404 2 MP stroke
46 0 1030 4615 2 MP stroke
0 169 1079 4446 2 MP stroke
46 0 1056 4446 2 MP stroke
46 0 1056 4615 2 MP stroke
0 211 1104 4404 2 MP stroke
46 0 1081 4404 2 MP stroke
46 0 1081 4615 2 MP stroke
0 169 1130 4446 2 MP stroke
46 0 1107 4446 2 MP stroke
46 0 1107 4615 2 MP stroke
0 169 1156 4446 2 MP stroke
46 0 1133 4446 2 MP stroke
46 0 1133 4615 2 MP stroke
0 211 1413 4404 2 MP stroke
46 0 1390 4404 2 MP stroke
46 0 1390 4615 2 MP stroke
0 169 1671 4446 2 MP stroke
45 0 1648 4446 2 MP stroke
45 0 1648 4615 2 MP stroke
0 169 1928 4446 2 MP stroke
46 0 1905 4446 2 MP stroke
46 0 1905 4615 2 MP stroke
0 211 2185 4404 2 MP stroke
46 0 2162 4404 2 MP stroke
46 0 2162 4615 2 MP stroke
0 295 2443 4320 2 MP stroke
45 0 2420 4320 2 MP stroke
45 0 2420 4615 2 MP stroke
0 211 2700 4404 2 MP stroke
46 0 2677 4404 2 MP stroke
46 0 2677 4615 2 MP stroke
0 253 2957 4362 2 MP stroke
46 0 2934 4362 2 MP stroke
46 0 2934 4615 2 MP stroke
0 380 3215 4235 2 MP stroke
24 0 3192 4235 2 MP stroke
24 0 3192 4615 2 MP stroke
258 -64 257 -21 257 43 258 -43 257 -21 257 0 258 21 257 -21 
26 0 26 21 25 -21 26 21 26 -42 26 21 25 21 26 -21 
26 -21 924 4552 18 MP stroke
gr

%%IncludeResource: font Helvetica
/Helvetica /WindowsLatin1Encoding 120 FMSR

1539 4904 mt 
(Time \(milliseconds\)) s
 649 3298 mt  -90 rotate
(Graph size \(number of nodes\)) s
90 rotate
1315  294 mt 
(Build times for linear graphs) s
 882 4659 mt 
( ) s
3199  431 mt 
( ) s
1 sg
0 480 1246 0 0 -480 1909 929 4 MP
PP
-1246 0 0 480 1246 0 0 -480 1909 929 5 MP stroke
4 w
DO
SO
6 w
0 sg
1909  449 mt 3155  449 L
1909  929 mt 3155  929 L
3155  929 mt 3155  449 L
1909  929 mt 1909  449 L
1909  929 mt 3155  929 L
1909  929 mt 1909  449 L
1909  449 mt 3155  449 L
1909  929 mt 3155  929 L
3155  929 mt 3155  449 L
1909  929 mt 1909  449 L
2379  584 mt 
(Entanglement) s
gs 1909 449 1247 481 MR c np
361 0 1981 541 2 MP stroke
gr

2379  732 mt 
(Neo4J) s
gs 1909 449 1247 481 MR c np
361 0 1981 689 2 MP stroke
gr

2379  880 mt 
(ONDEX) s
gs 1909 449 1247 481 MR c np
361 0 1981 836 2 MP stroke
gr

1 sg
0 4227 2315 0 0 -4227 3946 4616 4 MP
PP
-2315 0 0 4227 2315 0 0 -4227 3946 4616 5 MP stroke
4 w
DO
SO
6 w
0 sg
3946  389 mt 6261  389 L
3946 4616 mt 6261 4616 L
6261 4616 mt 6261  389 L
3946 4616 mt 3946  389 L
3946 4616 mt 6261 4616 L
3946 4616 mt 3946  389 L
3946 4616 mt 3946 4573 L
3946  389 mt 3946  431 L
3913 4761 mt 
(0) s
4460 4616 mt 4460 4573 L
4460  389 mt 4460  431 L
4394 4761 mt 
(20) s
4974 4616 mt 4974 4573 L
4974  389 mt 4974  431 L
4908 4761 mt 
(40) s
5489 4616 mt 5489 4573 L
5489  389 mt 5489  431 L
5423 4761 mt 
(60) s
6003 4616 mt 6003 4573 L
6003  389 mt 6003  431 L
5937 4761 mt 
(80) s
3946 4616 mt 3988 4616 L
6261 4616 mt 6218 4616 L
3845 4660 mt 
(0) s
3946 4193 mt 3988 4193 L
6261 4193 mt 6218 4193 L
3845 4237 mt 
(1) s
3946 3770 mt 3988 3770 L
6261 3770 mt 6218 3770 L
3845 3814 mt 
(2) s
3946 3347 mt 3988 3347 L
6261 3347 mt 6218 3347 L
3845 3391 mt 
(3) s
3946 2925 mt 3988 2925 L
6261 2925 mt 6218 2925 L
3845 2969 mt 
(4) s
3946 2502 mt 3988 2502 L
6261 2502 mt 6218 2502 L
3845 2546 mt 
(5) s
3946 2079 mt 3988 2079 L
6261 2079 mt 6218 2079 L
3845 2123 mt 
(6) s
3946 1657 mt 3988 1657 L
6261 1657 mt 6218 1657 L
3845 1701 mt 
(7) s
3946 1234 mt 3988 1234 L
6261 1234 mt 6218 1234 L
3845 1278 mt 
(8) s
3946  811 mt 3988  811 L
6261  811 mt 6218  811 L
3845  855 mt 
(9) s
3946  389 mt 3988  389 L
6261  389 mt 6218  389 L
3778  433 mt 
(10) s
3946  335 mt 
(x 10) s
%%IncludeResource: font Helvetica
/Helvetica /WindowsLatin1Encoding 80 FMSR

4172  261 mt 
(4) s
3946  389 mt 6261  389 L
3946 4616 mt 6261 4616 L
6261 4616 mt 6261  389 L
3946 4616 mt 3946  389 L
gs 3946 389 2316 4228 MR c np
0 3778 3971 836 2 MP stroke
46 0 3948 836 2 MP stroke
46 0 3948 4614 2 MP stroke
0 36 3997 4578 2 MP stroke
46 0 3974 4578 2 MP stroke
46 0 3974 4614 2 MP stroke
0 27 4023 4585 2 MP stroke
46 0 4000 4585 2 MP stroke
46 0 4000 4612 2 MP stroke
0 41 4048 4570 2 MP stroke
46 0 4025 4570 2 MP stroke
46 0 4025 4611 2 MP stroke
0 23 4074 4588 2 MP stroke
46 0 4051 4588 2 MP stroke
46 0 4051 4611 2 MP stroke
0 75 4100 4504 2 MP stroke
46 0 4077 4504 2 MP stroke
46 0 4077 4579 2 MP stroke
0 574 4126 4034 2 MP stroke
45 0 4103 4034 2 MP stroke
45 0 4103 4608 2 MP stroke
0 24 4151 4587 2 MP stroke
46 0 4128 4587 2 MP stroke
46 0 4128 4611 2 MP stroke
0 34 4177 4576 2 MP stroke
46 0 4154 4576 2 MP stroke
46 0 4154 4610 2 MP stroke
0 811 4203 3771 2 MP stroke
46 0 4180 3771 2 MP stroke
46 0 4180 4582 2 MP stroke
0 1319 4460 3275 2 MP stroke
46 0 4437 3275 2 MP stroke
46 0 4437 4594 2 MP stroke
0 1264 4717 3239 2 MP stroke
46 0 4694 3239 2 MP stroke
46 0 4694 4503 2 MP stroke
0 422 4974 4083 2 MP stroke
46 0 4951 4083 2 MP stroke
46 0 4951 4505 2 MP stroke
0 772 5232 3690 2 MP stroke
46 0 5209 3690 2 MP stroke
46 0 5209 4462 2 MP stroke
0 793 5489 3601 2 MP stroke
46 0 5466 3601 2 MP stroke
46 0 5466 4394 2 MP stroke
0 69 5746 3927 2 MP stroke
46 0 5723 3927 2 MP stroke
46 0 5723 3996 2 MP stroke
0 1753 6003 2271 2 MP stroke
46 0 5980 2271 2 MP stroke
46 0 5980 4024 2 MP stroke
0 16 6261 3801 2 MP stroke
24 0 6238 3801 2 MP stroke
24 0 6238 3817 2 MP stroke
258 662 257 -815 257 -35 257 -79 258 -218 257 423 257 -64 257 -241 
26 -417 26 -6 25 278 26 -221 26 -58 26 9 25 -8 26 3 
26 1871 3971 2725 18 MP stroke
0 1 3971 4579 2 MP stroke
46 0 3948 4579 2 MP stroke
46 0 3948 4580 2 MP stroke
0 8 3997 4575 2 MP stroke
46 0 3974 4575 2 MP stroke
46 0 3974 4583 2 MP stroke
0 9 4023 4577 2 MP stroke
46 0 4000 4577 2 MP stroke
46 0 4000 4586 2 MP stroke
0 55 4048 4525 2 MP stroke
46 0 4025 4525 2 MP stroke
46 0 4025 4580 2 MP stroke
0 5 4074 4578 2 MP stroke
46 0 4051 4578 2 MP stroke
46 0 4051 4583 2 MP stroke
0 3 4100 4579 2 MP stroke
46 0 4077 4579 2 MP stroke
46 0 4077 4582 2 MP stroke
0 6 4126 4578 2 MP stroke
45 0 4103 4578 2 MP stroke
45 0 4103 4584 2 MP stroke
0 5 4151 4577 2 MP stroke
46 0 4128 4577 2 MP stroke
46 0 4128 4582 2 MP stroke
4177 4581 PD
46 0 4154 4581 2 MP stroke
46 0 4154 4581 2 MP stroke
0 13 4203 4564 2 MP stroke
46 0 4180 4564 2 MP stroke
46 0 4180 4577 2 MP stroke
0 2 4460 4578 2 MP stroke
46 0 4437 4578 2 MP stroke
46 0 4437 4580 2 MP stroke
4717 4579 PD
46 0 4694 4579 2 MP stroke
46 0 4694 4579 2 MP stroke
4974 4577 PD
46 0 4951 4577 2 MP stroke
46 0 4951 4577 2 MP stroke
0 1 5232 4579 2 MP stroke
46 0 5209 4579 2 MP stroke
46 0 5209 4580 2 MP stroke
0 3 5489 4577 2 MP stroke
46 0 5466 4577 2 MP stroke
46 0 5466 4580 2 MP stroke
0 14 5746 4562 2 MP stroke
46 0 5723 4562 2 MP stroke
46 0 5723 4576 2 MP stroke
0 7 6003 4573 2 MP stroke
46 0 5980 4573 2 MP stroke
46 0 5980 4580 2 MP stroke
0 3 6261 4566 2 MP stroke
24 0 6238 4566 2 MP stroke
24 0 6238 4569 2 MP stroke
258 -10 257 8 257 -10 257 -1 258 3 257 -2 257 0 257 8 
26 -10 26 1 25 -1 26 0 26 0 26 28 25 -28 26 2 
26 0 3971 4579 18 MP stroke
0 211 3971 4404 2 MP stroke
46 0 3948 4404 2 MP stroke
46 0 3948 4615 2 MP stroke
0 211 3997 4404 2 MP stroke
46 0 3974 4404 2 MP stroke
46 0 3974 4615 2 MP stroke
0 211 4023 4404 2 MP stroke
46 0 4000 4404 2 MP stroke
46 0 4000 4615 2 MP stroke
0 211 4048 4404 2 MP stroke
46 0 4025 4404 2 MP stroke
46 0 4025 4615 2 MP stroke
0 169 4074 4446 2 MP stroke
46 0 4051 4446 2 MP stroke
46 0 4051 4615 2 MP stroke
0 211 4100 4404 2 MP stroke
46 0 4077 4404 2 MP stroke
46 0 4077 4615 2 MP stroke
0 169 4126 4446 2 MP stroke
45 0 4103 4446 2 MP stroke
45 0 4103 4615 2 MP stroke
0 169 4151 4446 2 MP stroke
46 0 4128 4446 2 MP stroke
46 0 4128 4615 2 MP stroke
0 169 4177 4446 2 MP stroke
46 0 4154 4446 2 MP stroke
46 0 4154 4615 2 MP stroke
0 211 4203 4404 2 MP stroke
46 0 4180 4404 2 MP stroke
46 0 4180 4615 2 MP stroke
0 295 4460 4320 2 MP stroke
46 0 4437 4320 2 MP stroke
46 0 4437 4615 2 MP stroke
0 380 4717 4235 2 MP stroke
46 0 4694 4235 2 MP stroke
46 0 4694 4615 2 MP stroke
0 634 4974 3981 2 MP stroke
46 0 4951 3981 2 MP stroke
46 0 4951 4615 2 MP stroke
0 845 5232 3770 2 MP stroke
46 0 5209 3770 2 MP stroke
46 0 5209 4615 2 MP stroke
0 1055 5489 3559 2 MP stroke
46 0 5466 3559 2 MP stroke
46 0 5466 4614 2 MP stroke
0 1562 5746 3052 2 MP stroke
46 0 5723 3052 2 MP stroke
46 0 5723 4614 2 MP stroke
0 1816 6003 2798 2 MP stroke
46 0 5980 2798 2 MP stroke
46 0 5980 4614 2 MP stroke
0 2365 6261 2248 2 MP stroke
24 0 6238 2248 2 MP stroke
24 0 6238 4613 2 MP stroke
258 -275 257 -127 257 -254 257 -105 258 -106 257 -127 257 -42 257 -43 
26 -21 26 0 25 0 26 21 26 -21 26 21 25 0 26 0 
26 0 3971 4510 18 MP stroke
gr

%%IncludeResource: font Helvetica
/Helvetica /WindowsLatin1Encoding 120 FMSR

4585 4904 mt 
(Time \(milliseconds\)) s
3696 3298 mt  -90 rotate
(Graph size \(number of nodes\)) s
90 rotate
4362  294 mt 
(Build times for linear graphs) s
3929 4659 mt 
( ) s
6245  431 mt 
( ) s
1 sg
0 480 1246 0 0 -480 4955 929 4 MP
PP
-1246 0 0 480 1246 0 0 -480 4955 929 5 MP stroke
4 w
DO
SO
6 w
0 sg
4955  449 mt 6201  449 L
4955  929 mt 6201  929 L
6201  929 mt 6201  449 L
4955  929 mt 4955  449 L
4955  929 mt 6201  929 L
4955  929 mt 4955  449 L
4955  449 mt 6201  449 L
4955  929 mt 6201  929 L
6201  929 mt 6201  449 L
4955  929 mt 4955  449 L
5425  584 mt 
(Entanglement) s
gs 4955 449 1247 481 MR c np
361 0 5027 541 2 MP stroke
gr

5425  732 mt 
(Neo4J) s
gs 4955 449 1247 481 MR c np
361 0 5027 689 2 MP stroke
gr

5425  880 mt 
(ONDEX) s
gs 4955 449 1247 481 MR c np
361 0 5027 836 2 MP stroke
gr


end %%Color Dict

eplot
%%EndObject

epage
end

showpage

%%Trailer
%%EOF
